model,property,algorithm,success,trials,min simulations,avg simulations,median simulations,max simulations,stdev simulations,min time,avg time,max time,stdev time,min robustness,avg robustness,max robustness,stdev robustness,control points,exploration ratio,budget
Autotrans_shift,"□_[0.0, 20.0] (speed < 120.0)",adaptive,50,50,3,33.04,30,98,24.1694359192154,0,7.3,41,7.31297421277654,-0.21327149261522,-0.21327149261522,-0.21327149261522,0,2 2 3 3 3 4,0.25,300
Autotrans_shift,"□_[0.0, 10.0] (RPM < 4750.0)",adaptive,50,50,1,4.32,3,24,4.05794760630423,0,0.54,4,0.838122293935579,-24.478646903126,-13.8191066424736,-8.36813434440774,4.18326573411959,2 2 3 3 3 4,0.25,300
Autotrans_shift,"□_[0.0, 30.0] (((gear != 1.0) && ◇_[0.001, 0.1] (gear == 1.0)) ==> ◇_[0.001, 0.1] □_[0.0, 2.5] (gear == 1.0))",adaptive,50,50,1,69.48,56,246,63.1791233925659,0,15.68,56,14.7695771152483,-Infinity,-Infinity,-Infinity,NaN,2 2 3 3 3 4,0.25,300
Autotrans_shift,"□_[0.0, 30.0] (((gear != 2.0) && ◇_[0.001, 0.1] (gear == 2.0)) ==> ◇_[0.001, 0.1] □_[0.0, 2.5] (gear == 2.0))",adaptive,26,50,9,125.346153846154,137,267,75.9309909366089,2,31.3076923076923,64,18.9161713478584,-Infinity,-Infinity,-Infinity,NaN,2 2 3 3 3 4,0.25,300
Autotrans_shift,"□_[0.0, 30.0] (((gear != 3.0) && ◇_[0.001, 0.1] (gear == 3.0)) ==> ◇_[0.001, 0.1] □_[0.0, 2.5] (gear == 3.0))",adaptive,50,50,4,70.82,68,267,55.929872270951,1,17.8,67,14.4052144753777,-Infinity,-Infinity,-Infinity,NaN,2 2 3 3 3 4,0.25,300
Autotrans_shift,"□_[0.0, 30.0] (((gear != 4.0) && ◇_[0.001, 0.1] (gear == 4.0)) ==> ◇_[0.001, 0.1] □_[0.0, 2.5] (gear == 4.0))",adaptive,50,50,1,71.1,52,285,72.230145213415,0,17.54,72,18.3205137616224,-Infinity,-Infinity,-Infinity,NaN,2 2 3 3 3 4,0.25,300
Autotrans_shift,"(□_[0.0, 30.0] (RPM < 3000.0) ==> □_[0.0, 4.0] (speed < 35.0))",adaptive,50,50,26,76.06,70,170,29.6705791198305,6,19.02,43,7.64916962280007,-3.47566042419241,-2.00200401192563,-1.37043697809701,0.974529090453779,2 2 3 3 3 4,0.25,300
Autotrans_shift,"(□_[0.0, 30.0] (RPM < 3000.0) ==> □_[0.0, 8.0] (speed < 50.0))",adaptive,50,50,14,82.38,75,195,39.7424822823032,3,19.34,45,9.67768314321192,-3.41427462584734,-2.05854976635337,-2.03088191207799,0.195641273790074,2 2 3 3 3 4,0.25,300
Autotrans_shift,"(□_[0.0, 30.0] (RPM < 3000.0) ==> □_[0.0, 4.0] (speed < 70.0))",adaptive,0,50,0,0,0,0,0,0,0,0,0,0,0,0,0,2 2 3 3 3 4,0.25,300
narmamaglev_v1,"□_[1.0, 18.0] (!(abs((Pos - Ref)) <= (0.005 + (0.03 * abs(Ref)))) ==> ◇_[0.0, 2.0] □_[0.0, 1.0] (abs((Pos - Ref)) <= (0.005 + (0.03 * abs(Ref)))))",adaptive,26,50,33,176.961538461538,197,297,63.9777966292874,12,63.6923076923077,107,23.383360290205,-0.008767879351858,-0.001497893906122,-5.22885100617126E-06,0.002691680630119,3 3 3 3 3 3,0.25,300
AbstractFuelControl_M1,"□_[11.0, 50.0] ((((throttle < 8.8) && ◇_[0.0, 0.05] (40.0 < throttle)) || ((40.0 < throttle) && ◇_[0.0, 0.05] (throttle < 8.8))) ==> □_[1.0, 5.0] (abs(mu) < 0.008))",adaptive,50,50,1,3.88,3,26,4.28399965700565,2,10.9,69,12.8924119432434,-0.000612559645129,-0.000506075199175,-1.95104292533069E-05,0.000151560901248,10 10 10 10 10,0.25,300
AbstractFuelControl_M1,"□_[11.0, 50.0] (abs(mu) < 0.007)",adaptive,50,50,1,1.18,1,2,0.388087934491604,2,2.36,4,0.776175868983207,-0.002755149187394,-0.001340848219633,-0.000108630280121,0.000974359180839,10 10 10 10 10,0.25,300
cars,"□_[0.0, 100.0] ((y5 - y4) <= 40.0)",adaptive,50,50,1,7.3,6,29,6.69830925971439,1,9.5,37,9.43344030130934,-58.3266758840495,-10.2265669123957,-0.200397901749419,11.5774350343842,20 20 20 20 20 20,0.25,300
cars,"□_[0.0, 70.0] ◇_[0.0, 30.0] (15.0 <= (y5 - y4))",adaptive,50,50,1,15.88,9,97,19.0087412760014,0,20.06,123,24.5327020400883,-5,-3.92174559085586,-0.460824409528431,1.52770885046064,20 20 20 20 20 20,0.25,300
cars,"□_[0.0, 80.0] (□_[0.0, 20.0] ((y2 - y1) <= 20.0) || ◇_[0.0, 20.0] ((y5 - y4) <= 40.0))",adaptive,4,50,74,207.5,229,298,97.671217186368,94,340.25,669,241.129805982863,-18.3663236717827,-8.69925724211177,-4.88472078121662,6.48033344511351,20 20 20 20 20 20,0.25,300
cars,"□_[0.0, 65.0] ◇_[0.0, 30.0] □_[0.0, 5.0] (8.0 <= (y5 - y4))",adaptive,0,50,0,0,0,0,0,0,0,0,0,0,0,0,0,20 20 20 20 20 20,0.25,300
cars,"□_[0.0, 72.0] ◇_[0.0, 8.0] (□_[0.0, 5.0] (9.0 <= (y2 - y1)) ==> □_[5.0, 20.0] (9.0 <= (y5 - y4)))",adaptive,39,50,4,117.948717948718,103,295,82.0702358759504,5,150.769230769231,377,105.103823741966,-0.999999999999387,-0.199481351755933,-0.002185524273209,0.240074742499091,20 20 20 20 20 20,0.25,300
steamcondense_RNN_22,"□_[30.0, 35.0] ((87.0 <= pressure) && (pressure <= 87.5))",adaptive,0,50,0,0,0,0,0,0,0,0,0,0,0,0,0,20 20 20 20 20 20,0.25,300
